%YAML 1.1
%TAG !u! tag:unity3d.com,2011:
--- !u!114 &11400000
MonoBehaviour:
  m_ObjectHideFlags: 0
  m_CorrespondingSourceObject: {fileID: 0}
  m_PrefabInstance: {fileID: 0}
  m_PrefabAsset: {fileID: 0}
  m_GameObject: {fileID: 0}
  m_Enabled: 1
  m_EditorHideFlags: 0
  m_Script: {fileID: 11500000, guid: bae2d66176e94b34891c6141e38ecc15, type: 3}
  m_Name: PlayerDummyData
  m_EditorClassIdentifier: 
  isAlive: 1
  playerMaxHealth: 3
  playerCurrentHealth: 3
  playerDamage: 1
  attackCd: 1
  movementSpeed: 0.15
  jumpForce: 35
  attackRange: 0.5
  hurtForce: 20
